<?xml version="1.0" encoding="UTF-8" standalone="no"?>
<svg
   xmlns:dc="http://purl.org/dc/elements/1.1/"
   xmlns:cc="http://creativecommons.org/ns#"
   xmlns:rdf="http://www.w3.org/1999/02/22-rdf-syntax-ns#"
   xmlns:svg="http://www.w3.org/2000/svg"
   xmlns="http://www.w3.org/2000/svg"
   xmlns:sodipodi="http://sodipodi.sourceforge.net/DTD/sodipodi-0.dtd"
   xmlns:inkscape="http://www.inkscape.org/namespaces/inkscape"
   width="160mm"
   height="204.44696mm"
   viewBox="0 0 160 204.44696"
   version="1.1"
   id="svg8"
   inkscape:version="1.0.2 (e86c870879, 2021-01-15)"
   sodipodi:docname="arithmetic-bases.svg">
  <defs
     id="defs2">
    <marker
       style="overflow:visible"
       id="Arrow2Lend"
       refX="0"
       refY="0"
       orient="auto"
       inkscape:stockid="Arrow2Lend"
       inkscape:isstock="true">
      <path
         transform="matrix(-1.1,0,0,-1.1,-1.1,0)"
         d="M 8.7185878,4.0337352 -2.2072895,0.01601326 8.7185884,-4.0017078 c -1.7454984,2.3720609 -1.7354408,5.6174519 -6e-7,8.035443 z"
         style="fill:#000000;fill-opacity:1;fill-rule:evenodd;stroke:#000000;stroke-width:0.625;stroke-linejoin:round;stroke-opacity:1"
         id="path1289" />
    </marker>
    <rect
       x="8.2733049"
       y="14.453045"
       width="98.279068"
       height="60.202396"
       id="rect835" />
  </defs>
  <sodipodi:namedview
     id="base"
     pagecolor="#ffffff"
     bordercolor="#666666"
     borderopacity="1.0"
     inkscape:pageopacity="0.0"
     inkscape:pageshadow="2"
     inkscape:zoom="0.5"
     inkscape:cx="386.94296"
     inkscape:cy="312.04882"
     inkscape:document-units="mm"
     inkscape:current-layer="layer1"
     inkscape:document-rotation="0"
     showgrid="false"
     inkscape:snap-global="false"
     inkscape:window-width="1916"
     inkscape:window-height="1152"
     inkscape:window-x="1920"
     inkscape:window-y="22"
     inkscape:window-maximized="1" />
  <metadata
     id="metadata5">
    <rdf:RDF>
      <cc:Work
         rdf:about="">
        <dc:format>image/svg+xml</dc:format>
        <dc:type
           rdf:resource="http://purl.org/dc/dcmitype/StillImage" />
        <dc:title></dc:title>
      </cc:Work>
    </rdf:RDF>
  </metadata>
  <g
     inkscape:label="Layer 1"
     inkscape:groupmode="layer"
     id="layer1"
     transform="translate(17.598843,4.2707961)">
    <path
       style="fill:none;stroke:#000000;stroke-width:1;stroke-linecap:butt;stroke-linejoin:miter;stroke-miterlimit:4;stroke-dasharray:none;stroke-opacity:1"
       d="m 65.637155,170.27815 v 15.3935"
       id="path1568" />
    <g
       id="g1122">
      <g
         id="g1030"
         transform="translate(18.52379)">
        <g
           id="g988">
          <g
             id="g895"
             transform="translate(24.116797,-1.4253564)">
            <path
               d="m 30.011414,24.502539 h 2.72851 v -9.417495 l -2.968288,0.595311 v -1.521351 l 2.951752,-0.595311 h 1.670179 v 10.938846 h 2.72851 v 1.405596 h -7.110663 z"
               style="font-size:16.9333px;line-height:1.25;font-family:sans-serif;-inkscape-font-specification:sans-serif;text-align:center;letter-spacing:0px;text-anchor:middle;white-space:pre;fill:#67ae62;fill-opacity:1"
               id="path854" />
            <path
               d="m 41.934177,24.502539 h 5.82909 v 1.405596 h -7.838266 v -1.405596 q 0.950845,-0.983918 2.587951,-2.63756 1.645374,-1.661911 2.067053,-2.141467 0.802017,-0.901236 1.116209,-1.521352 0.32246,-0.628384 0.32246,-1.231963 0,-0.983917 -0.69453,-1.604033 -0.686262,-0.620116 -1.794202,-0.620116 -0.78548,0 -1.661911,0.272851 -0.868162,0.272851 -1.860348,0.826822 v -1.686716 q 1.008722,-0.405143 1.885153,-0.611848 0.87643,-0.206705 1.604033,-0.206705 1.918225,0 3.059239,0.959113 1.141013,0.959112 1.141013,2.563145 0,0.760675 -0.289387,1.446937 -0.281119,0.677994 -1.033527,1.604033 -0.206705,0.239779 -1.314646,1.38906 -1.10794,1.141014 -3.125384,3.199799 z"
               style="font-size:16.9333px;line-height:1.25;font-family:sans-serif;-inkscape-font-specification:sans-serif;text-align:center;letter-spacing:0px;text-anchor:middle;white-space:pre;fill:#b94972;fill-opacity:1"
               id="path856" />
            <path
               d="m 50.84731,13.563694 h 7.937485 V 14.27476 L 54.303423,25.908135 H 52.55883 L 56.775619,14.96929 H 50.84731 Z"
               style="font-size:16.9333px;line-height:1.25;font-family:sans-serif;-inkscape-font-specification:sans-serif;text-align:center;letter-spacing:0px;text-anchor:middle;white-space:pre;fill:#7f63b8;fill-opacity:1"
               id="path858" />
          </g>
          <text
             xml:space="preserve"
             style="font-size:11.2889px;line-height:1.25;font-family:sans-serif;-inkscape-font-specification:sans-serif;text-align:center;letter-spacing:0px;text-anchor:middle;fill:#b94972;fill-opacity:1;stroke-width:0.264583"
             x="68.290283"
             y="4.1076846"
             id="text886"><tspan
               sodipodi:role="line"
               id="tspan884"
               x="68.290283"
               y="4.1076846"
               style="font-size:11.2889px;fill:#b94972;fill-opacity:1;stroke-width:0.264583">2*10¹</tspan></text>
          <text
             xml:space="preserve"
             style="font-size:11.2889px;line-height:1.25;font-family:sans-serif;-inkscape-font-specification:sans-serif;text-align:center;letter-spacing:0px;text-anchor:middle;fill:#7f63b8;fill-opacity:1;stroke-width:0.264583"
             x="89.566689"
             y="40.508816"
             id="text870"><tspan
               sodipodi:role="line"
               id="tspan868"
               x="89.566689"
               y="40.508816"
               style="font-size:11.2889px;fill:#7f63b8;fill-opacity:1;stroke-width:0.264583">7x10⁰</tspan></text>
          <text
             xml:space="preserve"
             style="font-size:11.2889px;line-height:1.25;font-family:sans-serif;-inkscape-font-specification:sans-serif;text-align:center;letter-spacing:0px;text-anchor:middle;fill:#67ae62;fill-opacity:1;stroke-width:0.264583"
             x="46.69141"
             y="40.508816"
             id="text890"><tspan
               sodipodi:role="line"
               id="tspan888"
               x="46.69141"
               y="40.508816"
               style="font-size:11.2889px;fill:#67ae62;fill-opacity:1;stroke-width:0.264583">1*10²</tspan></text>
        </g>
      </g>
      <text
         xml:space="preserve"
         style="font-size:11.2889px;line-height:1.25;font-family:sans-serif;-inkscape-font-specification:sans-serif;text-align:start;letter-spacing:0px;text-anchor:start;stroke-width:0.264583"
         x="-18.624104"
         y="24.322926"
         id="text913"><tspan
           sodipodi:role="line"
           id="tspan911"
           x="-18.624104"
           y="24.322926"
           style="font-size:11.2889px;text-align:start;text-anchor:start;stroke-width:0.264583">base 10</tspan></text>
    </g>
    <text
       xml:space="preserve"
       style="font-size:11.2889px;line-height:1.25;font-family:sans-serif;-inkscape-font-specification:sans-serif;text-align:center;letter-spacing:0px;text-anchor:middle;stroke-width:0.264583"
       x="3.8076251"
       y="89.015862"
       id="text917"><tspan
         sodipodi:role="line"
         id="tspan915"
         x="3.8076248"
         y="89.015862"
         style="font-size:11.2889px;stroke-width:0.264583">base 16</tspan></text>
    <g
       id="g972"
       transform="translate(19.125523,-17.696857)">
      <path
         d="m 58.605451,99.671856 v 1.422134 q -0.64492,-0.35553 -1.298109,-0.52917 -0.644921,-0.1819 -1.306378,-0.1819 -1.48001,0 -2.298563,0.94258 -0.818553,0.93431 -0.818553,2.62929 0,1.69498 0.818553,2.63756 0.818553,0.93431 2.298563,0.93431 0.661457,0 1.306378,-0.17363 0.653189,-0.18191 1.298109,-0.53744 v 1.4056 q -0.636652,0.29765 -1.322914,0.44648 -0.677993,0.14883 -1.446937,0.14883 -2.091858,0 -3.323822,-1.31465 -1.231963,-1.31464 -1.231963,-3.54706 0,-2.26549 1.240232,-3.5636 1.2485,-1.298109 3.414772,-1.298109 0.702798,0 1.372523,0.148828 0.669725,0.140559 1.298109,0.429947 z"
         style="font-size:16.9333px;line-height:1.25;font-family:sans-serif;-inkscape-font-specification:sans-serif;text-align:center;letter-spacing:0px;text-anchor:middle;fill:#b97e3a;fill-opacity:1;stroke-width:0.264583"
         id="path943" />
      <path
         d="m 65.4598,103.92172 q -1.843811,0 -2.554878,0.42168 -0.711066,0.42168 -0.711066,1.43867 0,0.81028 0.529166,1.28984 0.537434,0.47128 1.455205,0.47128 1.265037,0 2.025712,-0.89296 0.768944,-0.90124 0.768944,-2.38952 v -0.33899 z m 3.034434,-0.62839 v 5.28339 h -1.521351 v -1.4056 q -0.520897,0.84336 -1.298109,1.24851 -0.777212,0.39687 -1.901689,0.39687 -1.422133,0 -2.265491,-0.79375 -0.835089,-0.80202 -0.835089,-2.14147 0,-1.56269 1.041795,-2.35644 1.050063,-0.79375 3.125384,-0.79375 h 2.133199 v -0.14882 q 0,-1.05007 -0.69453,-1.62057 -0.686261,-0.57878 -1.934762,-0.57878 -0.793748,0 -1.546155,0.19017 -0.752408,0.19017 -1.446938,0.57051 v -1.405598 q 0.83509,-0.322461 1.62057,-0.479557 0.78548,-0.165364 1.529619,-0.165364 2.009176,0 3.001362,1.041799 0.992185,1.04179 0.992185,3.15845 z"
         style="font-size:16.9333px;line-height:1.25;font-family:sans-serif;-inkscape-font-specification:sans-serif;text-align:center;letter-spacing:0px;text-anchor:middle;fill:#67ae62;fill-opacity:1;stroke-width:0.264583"
         id="path945" />
      <path
         d="m 76.315963,95.711382 v 1.265036 h -1.455205 q -0.818553,0 -1.141013,0.330729 -0.314192,0.330729 -0.314192,1.190623 v 0.818553 h 2.505268 v 1.182357 h -2.505268 v 8.07804 h -1.52962 v -8.07804 h -1.455205 v -1.182357 h 1.455205 v -0.644921 q 0,-1.546156 0.719335,-2.248954 0.719334,-0.711066 2.282026,-0.711066 z"
         style="font-size:16.9333px;line-height:1.25;font-family:sans-serif;-inkscape-font-specification:sans-serif;text-align:center;letter-spacing:0px;text-anchor:middle;fill:#b94972;fill-opacity:1;stroke-width:0.264583"
         id="path947" />
      <path
         d="m 85.510217,103.56618 v 0.74414 h -6.994908 q 0.09922,1.57096 0.942576,2.39779 0.851626,0.81855 2.364709,0.81855 0.87643,0 1.694983,-0.21498 0.826822,-0.21497 1.637106,-0.64492 v 1.43867 q -0.818553,0.34727 -1.678447,0.52917 -0.859894,0.1819 -1.744593,0.1819 -2.215881,0 -3.51399,-1.28984 -1.289841,-1.28984 -1.289841,-3.48919 0,-2.27376 1.223695,-3.60494 1.231964,-1.339449 3.315554,-1.339449 1.868616,0 2.951752,1.207159 1.091404,1.19889 1.091404,3.26594 z m -1.521352,-0.44648 q -0.01654,-1.2485 -0.702798,-1.99264 -0.677993,-0.74414 -1.80247,-0.74414 -1.273305,0 -2.042249,0.71934 -0.760675,0.71933 -0.87643,2.02571 z"
         style="font-size:16.9333px;line-height:1.25;font-family:sans-serif;-inkscape-font-specification:sans-serif;text-align:center;letter-spacing:0px;text-anchor:middle;fill:#7f63b8;fill-opacity:1;stroke-width:0.264583"
         id="path949" />
    </g>
    <text
       xml:space="preserve"
       style="font-size:11.2889px;line-height:1.25;font-family:sans-serif;-inkscape-font-specification:sans-serif;text-align:center;letter-spacing:0px;text-anchor:middle;fill:#7f63b8;fill-opacity:1;stroke-width:0.264583"
       x="122.84515"
       y="106.74132"
       id="text925"><tspan
         sodipodi:role="line"
         id="tspan923"
         x="122.84515"
         y="106.74132"
         style="fill:#7f63b8;fill-opacity:1;stroke-width:0.264583">14*16⁰</tspan></text>
    <text
       xml:space="preserve"
       style="font-size:11.2889px;line-height:1.25;font-family:sans-serif;-inkscape-font-specification:sans-serif;text-align:center;letter-spacing:0px;text-anchor:middle;fill:#67ae62;fill-opacity:1;stroke-width:0.264583"
       x="68.881172"
       y="106.74132"
       id="text933"><tspan
         sodipodi:role="line"
         x="68.881172"
         y="106.74132"
         style="fill:#67ae62;fill-opacity:1;stroke-width:0.264583"
         id="tspan935">10*16²</tspan></text>
    <text
       xml:space="preserve"
       style="font-size:11.2889px;line-height:1.25;font-family:sans-serif;-inkscape-font-specification:sans-serif;text-align:center;letter-spacing:0px;text-anchor:middle;fill:#b94972;fill-opacity:1;stroke-width:0.264583"
       x="107.75567"
       y="70.611473"
       id="text929"><tspan
         sodipodi:role="line"
         id="tspan927"
         x="107.75567"
         y="70.611473"
         style="fill:#b94972;fill-opacity:1;stroke-width:0.264583">15*16¹</tspan></text>
    <text
       xml:space="preserve"
       style="font-size:11.2889px;line-height:1.25;font-family:sans-serif;-inkscape-font-specification:sans-serif;text-align:center;letter-spacing:0px;text-anchor:middle;fill:#b97e3a;fill-opacity:1;stroke-width:0.264583"
       x="58.854588"
       y="70.611473"
       id="text941"><tspan
         sodipodi:role="line"
         id="tspan939"
         x="58.854588"
         y="70.611473"
         style="fill:#b97e3a;fill-opacity:1;stroke-width:0.264583">12*16³</tspan></text>
    <path
       style="fill:none;stroke:#000000;stroke-width:1;stroke-linecap:butt;stroke-linejoin:miter;stroke-miterlimit:4;stroke-dasharray:none;stroke-opacity:1"
       d="M -17.598843,51.450833 H 142.40116"
       id="path1032" />
    <path
       style="fill:none;stroke:#000000;stroke-width:1;stroke-linecap:butt;stroke-linejoin:miter;stroke-miterlimit:4;stroke-dasharray:none;stroke-opacity:1"
       d="M -17.598842,117.68333 H 142.40115"
       id="path1032-3" />
    <text
       xml:space="preserve"
       style="font-size:11.2889px;line-height:1.25;font-family:sans-serif;-inkscape-font-specification:sans-serif;text-align:start;letter-spacing:0px;text-anchor:start;stroke-width:0.264583"
       x="-18.624104"
       y="140.00372"
       id="text917-6"><tspan
         sodipodi:role="line"
         id="tspan915-7"
         x="-18.624104"
         y="140.00372"
         style="font-size:11.2889px;text-align:start;text-anchor:start;stroke-width:0.264583">base 16 vers 2 très simple</tspan></text>
    <g
       id="g1611">
      <g
         id="g1264"
         transform="translate(0,7.0033327)">
        <path
           d="m 55.84759,149.3634 v 1.42213 q -0.64492,-0.35553 -1.298109,-0.52916 -0.644921,-0.18191 -1.306378,-0.18191 -1.48001,0 -2.298563,0.94259 -0.818553,0.9343 -0.818553,2.62929 0,1.69497 0.818553,2.63755 0.818553,0.93431 2.298563,0.93431 0.661457,0 1.306378,-0.17363 0.653189,-0.18191 1.298109,-0.53744 v 1.4056 q -0.636652,0.29765 -1.322914,0.44648 -0.677993,0.14883 -1.446937,0.14883 -2.091858,0 -3.323822,-1.31465 -1.231963,-1.31464 -1.231963,-3.54706 0,-2.26549 1.240232,-3.56359 1.2485,-1.29811 3.414772,-1.29811 0.702798,0 1.372523,0.14882 0.669725,0.14056 1.298109,0.42995 z"
           style="font-size:16.9333px;line-height:1.25;font-family:sans-serif;-inkscape-font-specification:sans-serif;text-align:center;letter-spacing:0px;text-anchor:middle;fill:#b97e3a;fill-opacity:1;stroke-width:0.264583"
           id="path943-3" />
        <path
           d="m 62.701939,153.61326 q -1.843811,0 -2.554878,0.42168 -0.711066,0.42168 -0.711066,1.43867 0,0.81028 0.529166,1.28984 0.537434,0.47128 1.455205,0.47128 1.265037,0 2.025712,-0.89296 0.768944,-0.90124 0.768944,-2.38952 v -0.33899 z m 3.034434,-0.62839 v 5.28339 h -1.521351 v -1.4056 q -0.520897,0.84336 -1.298109,1.24851 -0.777212,0.39687 -1.901689,0.39687 -1.422133,0 -2.265491,-0.79375 -0.835089,-0.80202 -0.835089,-2.14147 0,-1.56269 1.041795,-2.35644 1.050063,-0.79375 3.125384,-0.79375 h 2.133199 v -0.14882 q 0,-1.05007 -0.69453,-1.62057 -0.686261,-0.57878 -1.934762,-0.57878 -0.793748,0 -1.546155,0.19017 -0.752408,0.19017 -1.446938,0.57051 v -1.40559 q 0.83509,-0.32246 1.62057,-0.47956 0.78548,-0.16536 1.529619,-0.16536 2.009176,0 3.001362,1.04179 0.992185,1.04179 0.992185,3.15845 z"
           style="font-size:16.9333px;line-height:1.25;font-family:sans-serif;-inkscape-font-specification:sans-serif;text-align:center;letter-spacing:0px;text-anchor:middle;fill:#67ae62;fill-opacity:1;stroke-width:0.264583"
           id="path945-5" />
        <path
           d="m 73.558102,145.40293 v 1.26503 h -1.455205 q -0.818553,0 -1.141013,0.33073 -0.314192,0.33073 -0.314192,1.19062 v 0.81856 h 2.505268 v 1.18235 h -2.505268 v 8.07804 h -1.52962 v -8.07804 h -1.455205 v -1.18235 h 1.455205 v -0.64492 q 0,-1.54616 0.719335,-2.24896 0.719334,-0.71106 2.282026,-0.71106 z"
           style="font-size:16.9333px;line-height:1.25;font-family:sans-serif;-inkscape-font-specification:sans-serif;text-align:center;letter-spacing:0px;text-anchor:middle;fill:#b94972;fill-opacity:1;stroke-width:0.264583"
           id="path947-6" />
        <path
           d="m 82.752356,153.25772 v 0.74414 h -6.994908 q 0.09922,1.57096 0.942576,2.39779 0.851626,0.81855 2.364709,0.81855 0.87643,0 1.694983,-0.21497 0.826822,-0.21497 1.637106,-0.64493 v 1.43867 q -0.818553,0.34727 -1.678447,0.52917 -0.859894,0.1819 -1.744593,0.1819 -2.215881,0 -3.51399,-1.28984 -1.289841,-1.28983 -1.289841,-3.48919 0,-2.27375 1.223695,-3.60494 1.231964,-1.33944 3.315554,-1.33944 1.868616,0 2.951752,1.20716 1.091404,1.19889 1.091404,3.26593 z m -1.521352,-0.44647 q -0.01654,-1.24851 -0.702798,-1.99264 -0.677993,-0.74415 -1.80247,-0.74415 -1.273305,0 -2.042249,0.71935 -0.760675,0.71932 -0.87643,2.02571 z"
           style="font-size:16.9333px;line-height:1.25;font-family:sans-serif;-inkscape-font-specification:sans-serif;text-align:center;letter-spacing:0px;text-anchor:middle;fill:#7f63b8;fill-opacity:1;stroke-width:0.264583"
           id="path949-2" />
      </g>
    </g>
    <g
       id="g1621">
      <text
         xml:space="preserve"
         style="font-size:11.2889px;line-height:1.25;font-family:sans-serif;-inkscape-font-specification:sans-serif;text-align:start;letter-spacing:0px;text-anchor:start;fill:#b97e3a;fill-opacity:1;stroke-width:0.264583"
         x="7.556601"
         y="200.01631"
         id="text1242"><tspan
           sodipodi:role="line"
           id="tspan1240"
           x="7.556601"
           y="200.01631"
           style="text-align:start;text-anchor:start;fill:#b97e3a;fill-opacity:1;stroke-width:0.264583">1100</tspan></text>
      <text
         xml:space="preserve"
         style="font-size:11.2889px;line-height:1.25;font-family:sans-serif;-inkscape-font-specification:sans-serif;text-align:start;letter-spacing:0px;text-anchor:start;fill:#67ae62;fill-opacity:1;stroke-width:0.264583"
         x="37.165646"
         y="200.01631"
         id="text1246"><tspan
           sodipodi:role="line"
           id="tspan1244"
           x="37.165646"
           y="200.01631"
           style="text-align:start;text-anchor:start;fill:#67ae62;fill-opacity:1;stroke-width:0.264583">1010</tspan></text>
      <text
         xml:space="preserve"
         style="font-size:11.2889px;line-height:1.25;font-family:sans-serif;-inkscape-font-specification:sans-serif;letter-spacing:0px;fill:#b94972;fill-opacity:1;stroke-width:0.264583"
         x="66.774689"
         y="200.01631"
         id="text1250"><tspan
           sodipodi:role="line"
           id="tspan1248"
           x="66.774689"
           y="200.01631"
           style="fill:#b94972;fill-opacity:1;stroke-width:0.264583">1111</tspan></text>
      <text
         xml:space="preserve"
         style="font-size:11.2889px;line-height:1.25;font-family:sans-serif;-inkscape-font-specification:sans-serif;letter-spacing:0px;fill:#7f63b8;fill-opacity:1;stroke-width:0.264583"
         x="96.091583"
         y="200.01631"
         id="text1254"><tspan
           sodipodi:role="line"
           id="tspan1252"
           x="96.091583"
           y="200.01631"
           style="fill:#7f63b8;fill-opacity:1;stroke-width:0.264583">1110</tspan></text>
    </g>
    <path
       style="fill:none;stroke:#000000;stroke-width:0.265;stroke-linecap:butt;stroke-linejoin:miter;stroke-miterlimit:4;stroke-dasharray:none;stroke-opacity:1;marker-end:url(#Arrow2Lend)"
       d="m 65.856071,183.69636 v 2.49852"
       id="path1266"
       sodipodi:nodetypes="cc" />
  </g>
</svg>
