<?xml version="1.0" encoding="UTF-8" standalone="no"?>
<!-- Created with Inkscape (http://www.inkscape.org/) -->
<svg
   xmlns:dc="http://purl.org/dc/elements/1.1/"
   xmlns:cc="http://web.resource.org/cc/"
   xmlns:rdf="http://www.w3.org/1999/02/22-rdf-syntax-ns#"
   xmlns:svg="http://www.w3.org/2000/svg"
   xmlns="http://www.w3.org/2000/svg"
   xmlns:sodipodi="http://sodipodi.sourceforge.net/DTD/sodipodi-0.dtd"
   xmlns:inkscape="http://www.inkscape.org/namespaces/inkscape"
   width="260"
   height="160"
   id="svg2"
   sodipodi:version="0.32"
   inkscape:version="0.44"
   sodipodi:docbase="C:\Dokumente und Einstellungen\Rudolf Frey\Eigene Dateien\Eigene Bilder\SVG\EL\Flip"
   sodipodi:docname="Flipflop SR2.svg"
   version="1.0">
  <defs
     id="defs4" />
  <sodipodi:namedview
     id="base"
     pagecolor="#ffffff"
     bordercolor="#666666"
     borderopacity="1.0"
     inkscape:pageopacity="0.0"
     inkscape:pageshadow="2"
     inkscape:zoom="2.3"
     inkscape:cx="204.70161"
     inkscape:cy="98.853173"
     inkscape:document-units="px"
     inkscape:current-layer="layer1"
     showgrid="true"
     gridspacingx="5px"
     gridspacingy="5px"
     gridempcolor="#ff3f00"
     gridempopacity="0.37647059"
     gridtolerance="10000"
     inkscape:grid-bbox="false"
     inkscape:grid-points="true"
     inkscape:window-width="1280"
     inkscape:window-height="977"
     inkscape:window-x="-4"
     inkscape:window-y="-4"
     inkscape:guide-bbox="false"
     width="260px"
     height="160px" />
  <metadata
     id="metadata7">
    <rdf:RDF>
      <cc:Work
         rdf:about="">
        <dc:format>image/svg+xml</dc:format>
        <dc:type
           rdf:resource="http://purl.org/dc/dcmitype/StillImage" />
      </cc:Work>
    </rdf:RDF>
  </metadata>
  <g
     inkscape:label="Ebene 1"
     inkscape:groupmode="layer"
     id="layer1"
     transform="translate(-48.5,-130.8622)">
    <path
       style="fill:none;fill-opacity:0.75;fill-rule:evenodd;stroke:black;stroke-width:3.0276382;stroke-linecap:butt;stroke-linejoin:miter;stroke-miterlimit:4;stroke-dasharray:none;stroke-opacity:1"
       d="M 138.54521,140.98667 L 138.54521,190.81699 L 191.76758,190.81699 L 191.76758,140.90741 L 138.54521,140.98667 z "
       id="path1880"
       sodipodi:nodetypes="ccccc" />
    <flowRoot
       xml:space="preserve"
       id="flowRoot1894"
       transform="translate(-12.6035,-12.04554)"><flowRegion
         id="flowRegion1896"><rect
           id="rect1898"
           width="50.507626"
           height="29.294424"
           x="181.82745"
           y="94.737572" /></flowRegion><flowPara
         id="flowPara1900"
         style="font-size:20px">SRG8</flowPara></flowRoot>    <text
       xml:space="preserve"
       style="font-size:12px;font-style:normal;font-weight:normal;fill:black;fill-opacity:1;stroke:none;stroke-width:3;stroke-linecap:butt;stroke-linejoin:miter;stroke-miterlimit:4;stroke-dasharray:none;stroke-opacity:1;font-family:Arial"
       x="153.5"
       y="175.8622"
       id="text2034"><tspan
         sodipodi:role="line"
         id="tspan2036"
         x="153.5"
         y="175.8622"
         style="font-size:32px;stroke-width:3;stroke-miterlimit:4;stroke-dasharray:none;font-family:Arial">&amp;</tspan></text>
    <path
       style="fill:none;fill-opacity:0.75;fill-rule:evenodd;stroke:black;stroke-width:3;stroke-linecap:butt;stroke-linejoin:miter;stroke-miterlimit:4;stroke-dasharray:none;stroke-opacity:1"
       d="M 138.5,151.45908 L 88.5,151.45908 L 88.5,151.45908"
       id="path2038" />
    <path
       style="fill:none;fill-opacity:0.75;fill-rule:evenodd;stroke:black;stroke-width:3;stroke-linecap:butt;stroke-linejoin:miter;stroke-miterlimit:4;stroke-dasharray:none;stroke-opacity:1"
       d="M 213.5,165.8622 C 223.5,165.8622 246.83333,165.8622 263.5,165.8622"
       id="path2042"
       sodipodi:nodetypes="cc" />
    <path
       sodipodi:type="arc"
       style="fill:white;fill-opacity:0.21568627;fill-rule:evenodd;stroke:black;stroke-width:3;stroke-linejoin:miter;stroke-miterlimit:4;stroke-dasharray:none;stroke-opacity:1"
       id="path2044"
       sodipodi:cx="90"
       sodipodi:cy="160"
       sodipodi:rx="10"
       sodipodi:ry="10"
       d="M 100 160 A 10 10 0 1 1  80,160 A 10 10 0 1 1  100 160 z"
       transform="matrix(1.086956,0,0,1.086957,105.674,-8.05092)" />
    <text
       xml:space="preserve"
       style="font-size:12px;font-style:normal;font-weight:normal;fill:black;fill-opacity:1;stroke:none;stroke-width:3;stroke-linecap:butt;stroke-linejoin:miter;stroke-miterlimit:4;stroke-dasharray:none;stroke-opacity:1;font-family:Arial"
       x="153.5"
       y="265.86221"
       id="text2786"><tspan
         sodipodi:role="line"
         id="tspan2788"
         x="153.5"
         y="265.86221"
         style="font-size:32px;stroke-width:3;stroke-miterlimit:4;stroke-dasharray:none;font-family:Arial">&amp;</tspan></text>
    <path
       style="fill:none;fill-opacity:0.75;fill-rule:evenodd;stroke:black;stroke-width:3;stroke-linecap:butt;stroke-linejoin:miter;stroke-miterlimit:4;stroke-dasharray:none;stroke-opacity:1"
       d="M 138.5,270.8622 L 88.5,270.8622 L 88.5,270.8622"
       id="path2790" />
    <path
       style="fill:none;fill-opacity:0.75;fill-rule:evenodd;stroke:black;stroke-width:3;stroke-linecap:butt;stroke-linejoin:miter;stroke-miterlimit:4;stroke-dasharray:none;stroke-opacity:1"
       d="M 213.5,255.8622 L 263.5,255.8622"
       id="path2792"
       sodipodi:nodetypes="cc" />
    <path
       sodipodi:type="arc"
       style="fill:white;fill-opacity:0.21568627;fill-rule:evenodd;stroke:black;stroke-width:3;stroke-linejoin:miter;stroke-miterlimit:4;stroke-dasharray:none;stroke-opacity:1"
       id="path2794"
       sodipodi:cx="90"
       sodipodi:cy="160"
       sodipodi:rx="10"
       sodipodi:ry="10"
       d="M 100 160 A 10 10 0 1 1  80,160 A 10 10 0 1 1  100 160 z"
       transform="matrix(1.086957,0,0,1.086956,105.6739,81.94924)" />
    <path
       style="fill:none;fill-opacity:0.75;fill-rule:evenodd;stroke:black;stroke-width:3;stroke-linecap:butt;stroke-linejoin:miter;stroke-opacity:1;stroke-miterlimit:4;stroke-dasharray:none"
       d="M 228.5,255.8622 L 228.5,231.45908 L 108.5,191.45908 L 108.5,181.45908 L 138.5,181.45908"
       id="path2798"
       sodipodi:nodetypes="ccccc" />
    <path
       style="fill:none;fill-opacity:0.75;fill-rule:evenodd;stroke:black;stroke-width:3;stroke-linecap:butt;stroke-linejoin:miter;stroke-opacity:1;stroke-miterlimit:4;stroke-dasharray:none"
       d="M 228.5,165.8622 L 228.5,191.45908 L 108.5,231.45908 L 108.5,241.45908 L 138.5,241.45908"
       id="path2800"
       sodipodi:nodetypes="ccccc" />
    <text
       xml:space="preserve"
       style="font-size:12px;font-style:normal;font-weight:normal;fill:black;fill-opacity:1;stroke:none;stroke-width:3;stroke-linecap:butt;stroke-linejoin:miter;stroke-miterlimit:4;stroke-dasharray:none;stroke-opacity:1;font-family:Arial"
       x="58.5"
       y="165.8622"
       id="text2810"><tspan
         sodipodi:role="line"
         id="tspan2812"
         x="58.5"
         y="165.8622"
         style="font-size:32px;stroke-width:3;stroke-miterlimit:4;stroke-dasharray:none;font-family:Arial">S</tspan></text>
    <text
       xml:space="preserve"
       style="font-size:12px;font-style:normal;font-weight:normal;fill:black;fill-opacity:1;stroke:none;stroke-width:3;stroke-linecap:butt;stroke-linejoin:miter;stroke-miterlimit:4;stroke-dasharray:none;stroke-opacity:1;font-family:Arial"
       x="58.5"
       y="280.86221"
       id="text2814"><tspan
         sodipodi:role="line"
         id="tspan2816"
         x="58.5"
         y="280.86221"
         style="font-size:32px;stroke-width:3;stroke-miterlimit:4;stroke-dasharray:none;font-family:Arial">R</tspan></text>
    <text
       xml:space="preserve"
       style="font-size:12px;font-style:normal;font-weight:normal;fill:black;fill-opacity:1;stroke:none;stroke-width:3;stroke-linecap:butt;stroke-linejoin:miter;stroke-miterlimit:4;stroke-dasharray:none;stroke-opacity:1;font-family:Arial"
       x="268.5"
       y="260.86221"
       id="text2822"><tspan
         sodipodi:role="line"
         id="tspan2824"
         x="268.5"
         y="260.86221"
         style="font-size:32px;stroke-width:3;stroke-miterlimit:4;stroke-dasharray:none;font-family:Arial">Q</tspan></text>
    <text
       xml:space="preserve"
       style="font-size:12px;font-style:normal;font-weight:normal;fill:black;fill-opacity:1;stroke:none;stroke-width:3;stroke-linecap:butt;stroke-linejoin:miter;stroke-miterlimit:4;stroke-dasharray:none;stroke-opacity:1;font-family:Arial"
       x="268.5"
       y="170.8622"
       id="text2826"><tspan
         sodipodi:role="line"
         id="tspan2828"
         x="268.5"
         y="170.8622"
         style="font-size:32px;stroke-width:3;stroke-miterlimit:4;stroke-dasharray:none;font-family:Arial">Q</tspan></text>
    <path
       style="fill:none;fill-opacity:0.75;fill-rule:evenodd;stroke:black;stroke-width:3;stroke-linecap:butt;stroke-linejoin:miter;stroke-miterlimit:4;stroke-dasharray:none;stroke-opacity:1"
       d="M 268.5,230.8622 C 278.5,230.8622 288.5,230.8622 288.5,230.8622 L 288.5,230.8622"
       id="path2830"
       sodipodi:nodetypes="ccc" />
    <path
       style="fill:none;fill-opacity:0.75;fill-rule:evenodd;stroke:black;stroke-width:3.02990699;stroke-linecap:butt;stroke-linejoin:miter;stroke-miterlimit:4;stroke-dasharray:none;stroke-opacity:1"
       d="M 138.54635,230.90855 L 138.54635,280.73645 L 191.76644,280.73645 L 191.76644,230.90855 L 138.54635,230.90855 z "
       id="path1899"
       sodipodi:nodetypes="ccccc" />
    <path
       style="fill:none;fill-opacity:0.75;fill-rule:evenodd;stroke:black;stroke-width:3;stroke-linecap:butt;stroke-linejoin:miter;stroke-miterlimit:4;stroke-dasharray:none;stroke-opacity:1"
       d="M 58.5,135.8622 C 68.5,135.8622 78.5,135.8622 78.5,135.8622 L 78.5,135.8622"
       id="path1896"
       sodipodi:nodetypes="ccc" />
    <path
       style="fill:none;fill-opacity:0.75;fill-rule:evenodd;stroke:black;stroke-width:3;stroke-linecap:butt;stroke-linejoin:miter;stroke-miterlimit:4;stroke-dasharray:none;stroke-opacity:1"
       d="M 58.5,250.8622 C 68.5,250.8622 78.5,250.8622 78.5,250.8622 L 78.5,250.8622"
       id="path1898"
       sodipodi:nodetypes="ccc" />
  </g>
</svg>
