<?xml version="1.0" encoding="UTF-8" standalone="no"?>
<svg
   xmlns:dc="http://purl.org/dc/elements/1.1/"
   xmlns:cc="http://creativecommons.org/ns#"
   xmlns:rdf="http://www.w3.org/1999/02/22-rdf-syntax-ns#"
   xmlns:svg="http://www.w3.org/2000/svg"
   xmlns="http://www.w3.org/2000/svg"
   xmlns:sodipodi="http://sodipodi.sourceforge.net/DTD/sodipodi-0.dtd"
   xmlns:inkscape="http://www.inkscape.org/namespaces/inkscape"
   width="1047.5891mm"
   height="663.82214mm"
   viewBox="0 0 1047.5891 663.82214"
   version="1.1"
   id="svg1595"
   inkscape:version="1.0.2 (e86c870879, 2021-01-15)"
   sodipodi:docname="call-stack-overflow1.svg">
  <defs
     id="defs1589">
    <marker
       style="overflow:visible"
       id="Arrow2Lend"
       refX="0"
       refY="0"
       orient="auto"
       inkscape:stockid="Arrow2Lend"
       inkscape:isstock="true">
      <path
         transform="matrix(-1.1,0,0,-1.1,-1.1,0)"
         d="M 8.7185878,4.0337352 -2.2072895,0.01601326 8.7185884,-4.0017078 c -1.7454984,2.3720609 -1.7354408,5.6174519 -6e-7,8.035443 z"
         style="fill:#000000;fill-opacity:1;fill-rule:evenodd;stroke:#000000;stroke-width:0.625;stroke-linejoin:round;stroke-opacity:1"
         id="path981" />
    </marker>
    <rect
       x="8.4882231"
       y="146.36482"
       width="181.85158"
       height="155.58929"
       id="rect2176" />
    <rect
       x="3.45014"
       y="104.66"
       width="172.2274"
       height="225.70471"
       id="rect2170" />
    <rect
       x="23.543783"
       y="156.09586"
       width="119.96887"
       height="120.42934"
       id="rect2160" />
    <rect
       x="8.4882231"
       y="146.36482"
       width="181.85158"
       height="155.58929"
       id="rect2176-4" />
    <rect
       x="8.4882231"
       y="146.36482"
       width="181.85158"
       height="155.58929"
       id="rect2357" />
    <marker
       style="overflow:visible"
       id="Arrow2Lend-2"
       refX="0"
       refY="0"
       orient="auto"
       inkscape:stockid="Arrow2Lend"
       inkscape:isstock="true">
      <path
         transform="matrix(-1.1,0,0,-1.1,-1.1,0)"
         d="M 8.7185878,4.0337352 -2.2072895,0.01601326 8.7185884,-4.0017078 c -1.7454984,2.3720609 -1.7354408,5.6174519 -6e-7,8.035443 z"
         style="fill:#000000;fill-opacity:1;fill-rule:evenodd;stroke:#000000;stroke-width:0.625;stroke-linejoin:round;stroke-opacity:1"
         id="path981-9" />
    </marker>
    <rect
       x="8.4882231"
       y="146.36482"
       width="181.85158"
       height="155.58929"
       id="rect2176-2" />
    <rect
       x="8.4882231"
       y="146.36482"
       width="181.85158"
       height="155.58929"
       id="rect2499" />
    <marker
       style="overflow:visible"
       id="Arrow2Lend-20"
       refX="0"
       refY="0"
       orient="auto"
       inkscape:stockid="Arrow2Lend"
       inkscape:isstock="true">
      <path
         transform="matrix(-1.1,0,0,-1.1,-1.1,0)"
         d="M 8.7185878,4.0337352 -2.2072895,0.01601326 8.7185884,-4.0017078 c -1.7454984,2.3720609 -1.7354408,5.6174519 -6e-7,8.035443 z"
         style="fill:#000000;fill-opacity:1;fill-rule:evenodd;stroke:#000000;stroke-width:0.625;stroke-linejoin:round;stroke-opacity:1"
         id="path981-5" />
    </marker>
    <rect
       x="8.4882231"
       y="146.36482"
       width="181.85158"
       height="155.58929"
       id="rect2176-2-3" />
    <rect
       x="8.4882231"
       y="146.36482"
       width="181.85158"
       height="155.58929"
       id="rect2649" />
    <marker
       style="overflow:visible"
       id="Arrow2Lend-20-8"
       refX="0"
       refY="0"
       orient="auto"
       inkscape:stockid="Arrow2Lend"
       inkscape:isstock="true">
      <path
         transform="matrix(-1.1,0,0,-1.1,-1.1,0)"
         d="M 8.7185878,4.0337352 -2.2072895,0.01601326 8.7185884,-4.0017078 c -1.7454984,2.3720609 -1.7354408,5.6174519 -6e-7,8.035443 z"
         style="fill:#000000;fill-opacity:1;fill-rule:evenodd;stroke:#000000;stroke-width:0.625;stroke-linejoin:round;stroke-opacity:1"
         id="path981-5-0" />
    </marker>
    <marker
       style="overflow:visible"
       id="Arrow2Lend-7"
       refX="0"
       refY="0"
       orient="auto"
       inkscape:stockid="Arrow2Lend"
       inkscape:isstock="true">
      <path
         transform="matrix(-1.1,0,0,-1.1,-1.1,0)"
         d="M 8.7185878,4.0337352 -2.2072895,0.01601326 8.7185884,-4.0017078 c -1.7454984,2.3720609 -1.7354408,5.6174519 -6e-7,8.035443 z"
         style="fill:#000000;fill-opacity:1;fill-rule:evenodd;stroke:#000000;stroke-width:0.625;stroke-linejoin:round;stroke-opacity:1"
         id="path981-8" />
    </marker>
    <marker
       style="overflow:visible"
       id="Arrow2Lend-3"
       refX="0"
       refY="0"
       orient="auto"
       inkscape:stockid="Arrow2Lend"
       inkscape:isstock="true">
      <path
         transform="matrix(-1.1,0,0,-1.1,-1.1,0)"
         d="M 8.7185878,4.0337352 -2.2072895,0.01601326 8.7185884,-4.0017078 c -1.7454984,2.3720609 -1.7354408,5.6174519 -6e-7,8.035443 z"
         style="fill:#000000;fill-opacity:1;fill-rule:evenodd;stroke:#000000;stroke-width:0.625;stroke-linejoin:round;stroke-opacity:1"
         id="path981-57" />
    </marker>
    <marker
       style="overflow:visible"
       id="Arrow2Lend-9"
       refX="0"
       refY="0"
       orient="auto"
       inkscape:stockid="Arrow2Lend"
       inkscape:isstock="true">
      <path
         transform="matrix(-1.1,0,0,-1.1,-1.1,0)"
         d="M 8.7185878,4.0337352 -2.2072895,0.01601326 8.7185884,-4.0017078 c -1.7454984,2.3720609 -1.7354408,5.6174519 -6e-7,8.035443 z"
         style="fill:#000000;fill-opacity:1;fill-rule:evenodd;stroke:#000000;stroke-width:0.625;stroke-linejoin:round;stroke-opacity:1"
         id="path981-6" />
    </marker>
    <marker
       style="overflow:visible"
       id="Arrow2Lend-7-6"
       refX="0"
       refY="0"
       orient="auto"
       inkscape:stockid="Arrow2Lend"
       inkscape:isstock="true">
      <path
         transform="matrix(-1.1,0,0,-1.1,-1.1,0)"
         d="M 8.7185878,4.0337352 -2.2072895,0.01601326 8.7185884,-4.0017078 c -1.7454984,2.3720609 -1.7354408,5.6174519 -6e-7,8.035443 z"
         style="fill:#000000;fill-opacity:1;fill-rule:evenodd;stroke:#000000;stroke-width:0.625;stroke-linejoin:round;stroke-opacity:1"
         id="path981-8-0" />
    </marker>
    <marker
       style="overflow:visible"
       id="Arrow2Lend-7-6-0"
       refX="0"
       refY="0"
       orient="auto"
       inkscape:stockid="Arrow2Lend"
       inkscape:isstock="true">
      <path
         transform="matrix(-1.1,0,0,-1.1,-1.1,0)"
         d="M 8.7185878,4.0337352 -2.2072895,0.01601326 8.7185884,-4.0017078 c -1.7454984,2.3720609 -1.7354408,5.6174519 -6e-7,8.035443 z"
         style="fill:#000000;fill-opacity:1;fill-rule:evenodd;stroke:#000000;stroke-width:0.625;stroke-linejoin:round;stroke-opacity:1"
         id="path981-8-0-9" />
    </marker>
  </defs>
  <sodipodi:namedview
     id="base"
     pagecolor="#ffffff"
     bordercolor="#666666"
     borderopacity="1.0"
     inkscape:pageopacity="0.0"
     inkscape:pageshadow="2"
     inkscape:zoom="0.24748737"
     inkscape:cx="2351.9181"
     inkscape:cy="1241.7373"
     inkscape:document-units="mm"
     inkscape:current-layer="layer1"
     inkscape:document-rotation="0"
     showgrid="false"
     showguides="false"
     inkscape:snap-global="false"
     inkscape:window-width="1916"
     inkscape:window-height="1152"
     inkscape:window-x="1920"
     inkscape:window-y="22"
     inkscape:window-maximized="1" />
  <metadata
     id="metadata1592">
    <rdf:RDF>
      <cc:Work
         rdf:about="">
        <dc:format>image/svg+xml</dc:format>
        <dc:type
           rdf:resource="http://purl.org/dc/dcmitype/StillImage" />
        <dc:title></dc:title>
      </cc:Work>
    </rdf:RDF>
  </metadata>
  <g
     inkscape:label="Layer 1"
     inkscape:groupmode="layer"
     id="layer1"
     transform="translate(27.666252,276.18323)">
    <text
       xml:space="preserve"
       id="text2158"
       style="font-style:normal;font-variant:normal;font-weight:normal;font-stretch:normal;font-size:22.5778px;line-height:1.25;font-family:'FuraCode Nerd Font Mono';-inkscape-font-specification:'FuraCode Nerd Font Mono';text-align:center;letter-spacing:0px;white-space:pre;shape-inside:url(#rect2160);" />
    <text
       xml:space="preserve"
       id="text2168"
       style="font-size:22.5778px;line-height:1.25;font-family:sans-serif;-inkscape-font-specification:sans-serif;text-align:center;letter-spacing:0px;white-space:pre;shape-inside:url(#rect2170);" />
    <g
       id="g2882">
      <g
         id="g2480"
         transform="translate(0,3.8968048)">
        <rect
           style="fill:#cccccc;fill-opacity:1;stroke:#000000;stroke-width:2;stroke-miterlimit:4;stroke-dasharray:none"
           id="rect3098-1"
           width="188.90944"
           height="489.88165"
           x="8.6935701"
           y="-224.64078" />
        <rect
           style="fill:#f2f2f2;fill-opacity:1;stroke:#000000;stroke-width:2;stroke-miterlimit:4;stroke-dasharray:none"
           id="rect2921-6-9"
           width="174.97816"
           height="68.083382"
           x="15.659207"
           y="190.1534" />
        <text
           xml:space="preserve"
           style="font-size:22.5778px;line-height:1.25;font-family:sans-serif;-inkscape-font-specification:sans-serif;text-align:center;letter-spacing:0px;text-anchor:middle;stroke-width:0.264583"
           x="102.64117"
           y="213.44603"
           id="text2269-2-3"><tspan
             sodipodi:role="line"
             id="tspan2267-5-6"
             x="102.64117"
             y="213.44603"
             style="stroke-width:0.264583">Frame module</tspan></text>
        <path
           style="fill:none;stroke:#000000;stroke-width:4;stroke-linecap:butt;stroke-linejoin:miter;stroke-miterlimit:4;stroke-dasharray:none;stroke-opacity:1"
           d="M 15.659225,225.26262 H 190.63735"
           id="path2961-2" />
      </g>
      <g
         id="g1132"
         transform="translate(-5.125217,-101.78271)">
        <g
           id="g2400"
           transform="translate(0,3.896813)">
          <path
             style="fill:none;stroke:#000000;stroke-width:1;stroke-linecap:butt;stroke-linejoin:miter;stroke-miterlimit:4;stroke-dasharray:none;stroke-opacity:1;marker-end:url(#Arrow2Lend)"
             d="M -22.541035,474.9195 H -3.9377107"
             id="path2187" />
          <text
             xml:space="preserve"
             style="font-size:22.5778px;line-height:1.25;font-family:sans-serif;-inkscape-font-specification:sans-serif;text-align:start;letter-spacing:0px;text-anchor:start;stroke-width:0.264583"
             x="4.5298448"
             y="426.10373"
             id="text1061"><tspan
               sodipodi:role="line"
               x="4.5298448"
               y="426.10373"
               style="font-style:normal;font-variant:normal;font-weight:normal;font-stretch:normal;font-family:'DejaVuSansMono Nerd Font';-inkscape-font-specification:'DejaVuSansMono Nerd Font';text-align:start;text-anchor:start;stroke-width:0.264583"
               id="tspan1065">def f(x):</tspan><tspan
               sodipodi:role="line"
               x="4.5298448"
               y="454.32599"
               style="font-style:normal;font-variant:normal;font-weight:normal;font-stretch:normal;font-family:'DejaVuSansMono Nerd Font';-inkscape-font-specification:'DejaVuSansMono Nerd Font';text-align:start;text-anchor:start;stroke-width:0.264583"
               id="tspan1071">  return f(x+1)</tspan><tspan
               sodipodi:role="line"
               x="4.5298448"
               y="482.54822"
               style="font-style:normal;font-variant:normal;font-weight:normal;font-stretch:normal;font-family:'DejaVuSansMono Nerd Font';-inkscape-font-specification:'DejaVuSansMono Nerd Font';text-align:start;text-anchor:start;stroke-width:0.264583"
               id="tspan1073">f(0)</tspan></text>
        </g>
      </g>
    </g>
  </g>
</svg>
