<?xml version="1.0" encoding="UTF-8" standalone="no"?>
<!-- Created with Inkscape (http://www.inkscape.org/) -->

<svg
   xmlns:dc="http://purl.org/dc/elements/1.1/"
   xmlns:cc="http://creativecommons.org/ns#"
   xmlns:rdf="http://www.w3.org/1999/02/22-rdf-syntax-ns#"
   xmlns:svg="http://www.w3.org/2000/svg"
   xmlns="http://www.w3.org/2000/svg"
   xmlns:xlink="http://www.w3.org/1999/xlink"
   xmlns:sodipodi="http://sodipodi.sourceforge.net/DTD/sodipodi-0.dtd"
   xmlns:inkscape="http://www.inkscape.org/namespaces/inkscape"
   id="svg2876"
   sodipodi:version="0.32"
   inkscape:version="0.46+devel"
   width="400"
   height="400"
   version="1.0"
   sodipodi:docname="Ordonnanceur_noyau_os.svg"
   inkscape:output_extension="org.inkscape.output.svg.inkscape"
   style="display:inline">
  <metadata
     id="metadata2882">
    <rdf:RDF>
      <cc:Work
         rdf:about="">
        <dc:format>image/svg+xml</dc:format>
        <dc:type
           rdf:resource="http://purl.org/dc/dcmitype/StillImage" />
        <dc:title />
      </cc:Work>
    </rdf:RDF>
  </metadata>
  <defs
     id="defs2880">
    <linearGradient
       id="linearGradient3988"
       inkscape:collect="always">
      <stop
         id="stop3990"
         offset="0"
         style="stop-color:#729fcf;stop-opacity:1" />
      <stop
         id="stop3992"
         offset="1"
         style="stop-color:#204a87;stop-opacity:1" />
    </linearGradient>
    <linearGradient
       id="linearGradient3982"
       inkscape:collect="always">
      <stop
         id="stop3984"
         offset="0"
         style="stop-color:#ef2929;stop-opacity:1" />
      <stop
         id="stop3986"
         offset="1"
         style="stop-color:#a40000;stop-opacity:1" />
    </linearGradient>
    <linearGradient
       id="linearGradient3976"
       inkscape:collect="always">
      <stop
         id="stop3978"
         offset="0"
         style="stop-color:#ad7fa8;stop-opacity:1" />
      <stop
         id="stop3980"
         offset="1"
         style="stop-color:#5c3566;stop-opacity:1" />
    </linearGradient>
    <linearGradient
       id="linearGradient3970"
       inkscape:collect="always">
      <stop
         id="stop3972"
         offset="0"
         style="stop-color:#ef2929;stop-opacity:1" />
      <stop
         id="stop3974"
         offset="1"
         style="stop-color:#a40000;stop-opacity:1" />
    </linearGradient>
    <linearGradient
       id="linearGradient3964"
       inkscape:collect="always">
      <stop
         id="stop3966"
         offset="0"
         style="stop-color:#ad7fa8;stop-opacity:1" />
      <stop
         id="stop3968"
         offset="1"
         style="stop-color:#5c3566;stop-opacity:1" />
    </linearGradient>
    <linearGradient
       id="linearGradient3958"
       inkscape:collect="always">
      <stop
         id="stop3960"
         offset="0"
         style="stop-color:#ef2929;stop-opacity:1" />
      <stop
         id="stop3962"
         offset="1"
         style="stop-color:#a40000;stop-opacity:1" />
    </linearGradient>
    <linearGradient
       inkscape:collect="always"
       id="linearGradient3891">
      <stop
         style="stop-color:#d3d7cf;stop-opacity:1"
         offset="0"
         id="stop3893" />
      <stop
         style="stop-color:#babdb6;stop-opacity:1"
         offset="1"
         id="stop3895" />
    </linearGradient>
    <linearGradient
       inkscape:collect="always"
       id="linearGradient3855">
      <stop
         style="stop-color:#e9b96e;stop-opacity:1"
         offset="0"
         id="stop3857" />
      <stop
         style="stop-color:#c17d11;stop-opacity:1"
         offset="1"
         id="stop3859" />
    </linearGradient>
    <linearGradient
       id="linearGradient3847"
       inkscape:collect="always">
      <stop
         id="stop3849"
         offset="0"
         style="stop-color:#729fcf;stop-opacity:1" />
      <stop
         id="stop3851"
         offset="1"
         style="stop-color:#204a87;stop-opacity:1" />
    </linearGradient>
    <linearGradient
       id="linearGradient3841"
       inkscape:collect="always">
      <stop
         id="stop3843"
         offset="0"
         style="stop-color:#ef2929;stop-opacity:1" />
      <stop
         id="stop3845"
         offset="1"
         style="stop-color:#a40000;stop-opacity:1" />
    </linearGradient>
    <linearGradient
       id="linearGradient3835"
       inkscape:collect="always">
      <stop
         id="stop3837"
         offset="0"
         style="stop-color:#ad7fa8;stop-opacity:1" />
      <stop
         id="stop3839"
         offset="1"
         style="stop-color:#5c3566;stop-opacity:1" />
    </linearGradient>
    <inkscape:perspective
       sodipodi:type="inkscape:persp3d"
       inkscape:vp_x="0 : 0.5 : 1"
       inkscape:vp_y="0 : 1000 : 0"
       inkscape:vp_z="1 : 0.5 : 1"
       inkscape:persp3d-origin="0.5 : 0.33333333 : 1"
       id="perspective2884" />
    <inkscape:perspective
       id="perspective3668"
       inkscape:persp3d-origin="0.5 : 0.33333333 : 1"
       inkscape:vp_z="1 : 0.5 : 1"
       inkscape:vp_y="0 : 1000 : 0"
       inkscape:vp_x="0 : 0.5 : 1"
       sodipodi:type="inkscape:persp3d" />
    <inkscape:perspective
       id="perspective3707"
       inkscape:persp3d-origin="0.5 : 0.33333333 : 1"
       inkscape:vp_z="1 : 0.5 : 1"
       inkscape:vp_y="0 : 1000 : 0"
       inkscape:vp_x="0 : 0.5 : 1"
       sodipodi:type="inkscape:persp3d" />
    <linearGradient
       inkscape:collect="always"
       xlink:href="#linearGradient3685-7"
       id="linearGradient3691-1"
       x1="50"
       y1="10"
       x2="50"
       y2="150"
       gradientUnits="userSpaceOnUse"
       gradientTransform="matrix(0.90909091,0,0,1.013986,5.4545454,-4.1258742)" />
    <linearGradient
       inkscape:collect="always"
       id="linearGradient3685-7">
      <stop
         style="stop-color:#8ae234;stop-opacity:1"
         offset="0"
         id="stop3687-5" />
      <stop
         style="stop-color:#4e9a06;stop-opacity:1"
         offset="1"
         id="stop3689-7" />
    </linearGradient>
    <linearGradient
       inkscape:collect="always"
       xlink:href="#linearGradient3835"
       id="linearGradient3787"
       gradientUnits="userSpaceOnUse"
       gradientTransform="matrix(0.90909091,0,0,1.013986,5.4545454,-4.1258772)"
       x1="50"
       y1="10"
       x2="50"
       y2="150" />
    <linearGradient
       inkscape:collect="always"
       xlink:href="#linearGradient3685-7"
       id="linearGradient3789"
       gradientUnits="userSpaceOnUse"
       gradientTransform="matrix(0.90909091,0,0,1.013986,5.4545454,-4.1258772)"
       x1="50"
       y1="10"
       x2="50"
       y2="150" />
    <linearGradient
       inkscape:collect="always"
       xlink:href="#linearGradient3847"
       id="linearGradient3811"
       gradientUnits="userSpaceOnUse"
       gradientTransform="matrix(0.90909091,0,0,1.013986,5.4545454,-4.1258772)"
       x1="50"
       y1="10"
       x2="50"
       y2="150" />
    <linearGradient
       inkscape:collect="always"
       xlink:href="#linearGradient3841"
       id="linearGradient3833"
       gradientUnits="userSpaceOnUse"
       gradientTransform="matrix(0.90909091,0,0,1.013986,5.4545454,-4.1258772)"
       x1="50"
       y1="10"
       x2="50"
       y2="150" />
    <linearGradient
       inkscape:collect="always"
       xlink:href="#linearGradient3855"
       id="linearGradient3861"
       x1="50"
       y1="160"
       x2="50"
       y2="180"
       gradientUnits="userSpaceOnUse"
       gradientTransform="matrix(0.97618332,0,0,1,5.1190835,0)" />
    <linearGradient
       inkscape:collect="always"
       xlink:href="#linearGradient3891"
       id="linearGradient3904"
       gradientUnits="userSpaceOnUse"
       x1="5"
       y1="244.25"
       x2="5"
       y2="302.25"
       gradientTransform="matrix(1,0,0,0.68965518,155.00001,186.55172)" />
    <linearGradient
       inkscape:collect="always"
       xlink:href="#linearGradient3685-7"
       id="linearGradient3907"
       gradientUnits="userSpaceOnUse"
       gradientTransform="matrix(0.90909091,0,0,0.10489515,155.09012,189.05594)"
       x1="50"
       y1="10"
       x2="50"
       y2="150" />
    <linearGradient
       inkscape:collect="always"
       xlink:href="#linearGradient3958"
       id="linearGradient3932"
       gradientUnits="userSpaceOnUse"
       gradientTransform="matrix(0.90909091,0,0,0.10489515,155.09012,209.05594)"
       x1="50"
       y1="10"
       x2="50"
       y2="150" />
    <linearGradient
       inkscape:collect="always"
       xlink:href="#linearGradient3964"
       id="linearGradient3936"
       gradientUnits="userSpaceOnUse"
       gradientTransform="matrix(0.90909091,0,0,0.10489515,155.09012,229.05594)"
       x1="50"
       y1="10"
       x2="50"
       y2="150" />
    <linearGradient
       inkscape:collect="always"
       xlink:href="#linearGradient3685-7"
       id="linearGradient3940"
       gradientUnits="userSpaceOnUse"
       gradientTransform="matrix(0.90909091,0,0,0.10489515,155.09012,249.05594)"
       x1="50"
       y1="10"
       x2="50"
       y2="150" />
    <linearGradient
       inkscape:collect="always"
       xlink:href="#linearGradient3970"
       id="linearGradient3944"
       gradientUnits="userSpaceOnUse"
       gradientTransform="matrix(0.90909091,0,0,0.10489515,155.09012,269.05594)"
       x1="50"
       y1="10"
       x2="50"
       y2="150" />
    <linearGradient
       inkscape:collect="always"
       xlink:href="#linearGradient3976"
       id="linearGradient3948"
       gradientUnits="userSpaceOnUse"
       gradientTransform="matrix(0.90909091,0,0,0.10489515,155.09012,289.05594)"
       x1="50"
       y1="10"
       x2="50"
       y2="150" />
    <linearGradient
       inkscape:collect="always"
       xlink:href="#linearGradient3982"
       id="linearGradient3952"
       gradientUnits="userSpaceOnUse"
       gradientTransform="matrix(0.90909091,0,0,0.10489515,155.09012,309.05594)"
       x1="50"
       y1="10"
       x2="50"
       y2="150" />
    <linearGradient
       inkscape:collect="always"
       xlink:href="#linearGradient3988"
       id="linearGradient3956"
       gradientUnits="userSpaceOnUse"
       gradientTransform="matrix(0.90909091,0,0,0.10489515,155.09012,329.05594)"
       x1="50"
       y1="10"
       x2="50"
       y2="150" />
    <inkscape:perspective
       id="perspective5090"
       inkscape:persp3d-origin="0.5 : 0.33333333 : 1"
       inkscape:vp_z="1 : 0.5 : 1"
       inkscape:vp_y="0 : 1000 : 0"
       inkscape:vp_x="0 : 0.5 : 1"
       sodipodi:type="inkscape:persp3d" />
  </defs>
  <sodipodi:namedview
     pagecolor="#ffffff"
     bordercolor="#666666"
     borderopacity="1"
     objecttolerance="10"
     gridtolerance="10"
     guidetolerance="10"
     inkscape:pageopacity="0"
     inkscape:pageshadow="2"
     inkscape:window-width="1440"
     inkscape:window-height="827"
     id="namedview2878"
     showgrid="false"
     inkscape:zoom="1"
     inkscape:cx="209.16917"
     inkscape:cy="200.99463"
     inkscape:window-x="0"
     inkscape:window-y="25"
     inkscape:current-layer="layer2">
    <inkscape:grid
       type="xygrid"
       id="grid3693"
       empspacing="5"
       visible="true"
       enabled="true"
       snapvisiblegridlinesonly="true" />
  </sodipodi:namedview>
  <g
     inkscape:groupmode="layer"
     id="layer2"
     inkscape:label="Elements"
     style="display:inline">
    <rect
       style="opacity:0.5;color:#000000;fill:#d3d7cf;fill-opacity:1;fill-rule:nonzero;stroke:#555753;stroke-width:0.93594748;stroke-linecap:round;stroke-linejoin:round;stroke-miterlimit:4;stroke-opacity:1;stroke-dasharray:none;stroke-dashoffset:0;marker:none;visibility:visible;display:inline;overflow:visible;enable-background:accumulate"
       id="rect5110"
       width="390.27203"
       height="145"
       x="5"
       y="5"
       rx="5"
       ry="5" />
    <g
       id="g3756"
       transform="matrix(0.84642699,0,0,0.84642699,31.53573,19.196626)">
      <rect
         ry="6.0839162"
         y="4.9999971"
         x="10"
         height="145"
         width="80"
         id="rect3683"
         style="color:#000000;fill:url(#linearGradient3789);fill-opacity:1;fill-rule:nonzero;stroke:#73d216;stroke-width:2;stroke-linecap:round;stroke-linejoin:round;stroke-miterlimit:4;stroke-opacity:1;stroke-dasharray:none;stroke-dashoffset:0;marker:none;visibility:visible;display:inline;overflow:visible;enable-background:accumulate" />
      <text
         id="text3695"
         y="24.999998"
         x="19.859375"
         style="font-size:40px;font-style:normal;font-weight:normal;fill:#000000;fill-opacity:1;stroke:none;font-family:Bitstream Vera Sans"
         xml:space="preserve"><tspan
           style="font-size:16px;fill:#eeeeec"
           y="24.999998"
           x="19.859375"
           id="tspan3697"
           sodipodi:role="line">Tâche 1</tspan></text>
      <path
         id="path3744"
         d="m 10,30 80,0"
         style="opacity:0.3;fill:none;stroke:#eeeeec;stroke-width:1px" />
      <path
         style="opacity:0.3;fill:none;stroke:#eeeeec;stroke-width:1px"
         d="m 10,68 80,0"
         id="path3746" />
      <path
         id="path3748"
         d="m 10,49 80,0"
         style="opacity:0.3;fill:none;stroke:#eeeeec;stroke-width:1px" />
      <path
         style="opacity:0.3;fill:none;stroke:#eeeeec;stroke-width:1px"
         d="m 10,87 80,0"
         id="path3750" />
      <path
         id="path3752"
         d="m 10,106 80,0"
         style="opacity:0.3;fill:none;stroke:#eeeeec;stroke-width:1px" />
      <path
         style="opacity:0.3;fill:none;stroke:#eeeeec;stroke-width:1px"
         d="m 10,125 80,0"
         id="path3754" />
    </g>
    <g
       id="g3767"
       transform="matrix(0.84642699,0,0,0.84642699,116.17844,19.196626)">
      <rect
         style="color:#000000;fill:url(#linearGradient3787);fill-opacity:1;fill-rule:nonzero;stroke:#5c3566;stroke-width:2;stroke-linecap:round;stroke-linejoin:round;stroke-miterlimit:4;stroke-opacity:1;stroke-dasharray:none;stroke-dashoffset:0;marker:none;visibility:visible;display:inline;overflow:visible;enable-background:accumulate"
         id="rect3769"
         width="80"
         height="145"
         x="10"
         y="4.9999971"
         ry="6.0839162" />
      <text
         xml:space="preserve"
         style="font-size:40px;font-style:normal;font-weight:normal;fill:#000000;fill-opacity:1;stroke:none;font-family:Bitstream Vera Sans"
         x="19.859375"
         y="24.999998"
         id="text3771"><tspan
           sodipodi:role="line"
           id="tspan3773"
           x="19.859375"
           y="24.999998"
           style="font-size:16px;fill:#eeeeec">Tâche 2</tspan></text>
      <path
         style="opacity:0.3;fill:none;stroke:#eeeeec;stroke-width:1px"
         d="m 10,30 80,0"
         id="path3775" />
      <path
         id="path3777"
         d="m 10,68 80,0"
         style="opacity:0.3;fill:none;stroke:#eeeeec;stroke-width:1px" />
      <path
         style="opacity:0.3;fill:none;stroke:#eeeeec;stroke-width:1px"
         d="m 10,49 80,0"
         id="path3779" />
      <path
         id="path3781"
         d="m 10,87 80,0"
         style="opacity:0.3;fill:none;stroke:#eeeeec;stroke-width:1px" />
      <path
         style="opacity:0.3;fill:none;stroke:#eeeeec;stroke-width:1px"
         d="m 10,106 80,0"
         id="path3783" />
      <path
         id="path3785"
         d="m 10,125 80,0"
         style="opacity:0.3;fill:none;stroke:#eeeeec;stroke-width:1px" />
    </g>
    <g
       transform="matrix(0.84642699,0,0,0.84642699,285.46383,19.196626)"
       id="g3791">
      <rect
         ry="6.0839162"
         y="4.9999971"
         x="10"
         height="145"
         width="80"
         id="rect3793"
         style="color:#000000;fill:url(#linearGradient3811);fill-opacity:1;fill-rule:nonzero;stroke:#204a87;stroke-width:2;stroke-linecap:round;stroke-linejoin:round;stroke-miterlimit:4;stroke-opacity:1;stroke-dasharray:none;stroke-dashoffset:0;marker:none;visibility:visible;display:inline;overflow:visible;enable-background:accumulate" />
      <text
         id="text3795"
         y="24.999998"
         x="19.859375"
         style="font-size:40px;font-style:normal;font-weight:normal;fill:#000000;fill-opacity:1;stroke:none;font-family:Bitstream Vera Sans"
         xml:space="preserve"><tspan
           style="font-size:16px;fill:#eeeeec"
           y="24.999998"
           x="19.859375"
           id="tspan3797"
           sodipodi:role="line">Tâche 4</tspan></text>
      <path
         id="path3799"
         d="m 10,30 80,0"
         style="opacity:0.3;fill:none;stroke:#eeeeec;stroke-width:1px" />
      <path
         style="opacity:0.3;fill:none;stroke:#eeeeec;stroke-width:1px"
         d="m 10,68 80,0"
         id="path3801" />
      <path
         id="path3803"
         d="m 10,49 80,0"
         style="opacity:0.3;fill:none;stroke:#eeeeec;stroke-width:1px" />
      <path
         style="opacity:0.3;fill:none;stroke:#eeeeec;stroke-width:1px"
         d="m 10,87 80,0"
         id="path3805" />
      <path
         id="path3807"
         d="m 10,106 80,0"
         style="opacity:0.3;fill:none;stroke:#eeeeec;stroke-width:1px" />
      <path
         style="opacity:0.3;fill:none;stroke:#eeeeec;stroke-width:1px"
         d="m 10,125 80,0"
         id="path3809" />
    </g>
    <g
       id="g3813"
       transform="matrix(0.84642699,0,0,0.84642699,200.82113,18.350201)">
      <rect
         style="color:#000000;fill:url(#linearGradient3833);fill-opacity:1;fill-rule:nonzero;stroke:#a40000;stroke-width:2;stroke-linecap:round;stroke-linejoin:round;stroke-miterlimit:4;stroke-opacity:1;stroke-dasharray:none;stroke-dashoffset:0;marker:none;visibility:visible;display:inline;overflow:visible;enable-background:accumulate"
         id="rect3815"
         width="80"
         height="145"
         x="10"
         y="4.9999971"
         ry="6.0839162" />
      <text
         xml:space="preserve"
         style="font-size:40px;font-style:normal;font-weight:normal;fill:#000000;fill-opacity:1;stroke:none;font-family:Bitstream Vera Sans"
         x="19.859375"
         y="24.999998"
         id="text3817"><tspan
           sodipodi:role="line"
           id="tspan3819"
           x="19.859375"
           y="24.999998"
           style="font-size:16px;fill:#eeeeec">Tâche 3</tspan></text>
      <path
         style="opacity:0.3;fill:none;stroke:#eeeeec;stroke-width:1px"
         d="m 10,30 80,0"
         id="path3821" />
      <path
         id="path3823"
         d="m 10,68 80,0"
         style="opacity:0.3;fill:none;stroke:#eeeeec;stroke-width:1px" />
      <path
         style="opacity:0.3;fill:none;stroke:#eeeeec;stroke-width:1px"
         d="m 10,49 80,0"
         id="path3825" />
      <path
         id="path3827"
         d="m 10,87 80,0"
         style="opacity:0.3;fill:none;stroke:#eeeeec;stroke-width:1px" />
      <path
         style="opacity:0.3;fill:none;stroke:#eeeeec;stroke-width:1px"
         d="m 10,106 80,0"
         id="path3829" />
      <path
         id="path3831"
         d="m 10,125 80,0"
         style="opacity:0.3;fill:none;stroke:#eeeeec;stroke-width:1px" />
    </g>
    <rect
       ry="5"
       rx="5"
       y="155"
       x="4.727951"
       height="242.90323"
       width="390.27203"
       id="rect4799"
       style="opacity:0.5;color:#000000;fill:#d3d7cf;fill-opacity:1;fill-rule:nonzero;stroke:#555753;stroke-width:1.21139038;stroke-linecap:round;stroke-linejoin:round;stroke-miterlimit:4;stroke-opacity:1;stroke-dasharray:none;stroke-dashoffset:0;marker:none;visibility:visible;display:inline;overflow:visible;enable-background:accumulate" />
    <rect
       style="color:#000000;fill:url(#linearGradient3861);fill-opacity:1;fill-rule:nonzero;stroke:#ce5c00;stroke-width:0.98801988;stroke-linecap:round;stroke-linejoin:round;stroke-miterlimit:4;stroke-opacity:1;stroke-dasharray:none;stroke-dashoffset:0;marker:none;visibility:visible;display:inline;overflow:visible;enable-background:accumulate"
       id="rect3853"
       width="380"
       height="19.27113"
       x="10"
       y="160"
       ry="2" />
    <text
       xml:space="preserve"
       style="font-size:40px;font-style:normal;font-weight:normal;fill:#eeeeec;fill-opacity:1;stroke:none;font-family:Bitstream Vera Sans"
       x="45.900223"
       y="173.18634"
       id="text3863"><tspan
         sodipodi:role="line"
         id="tspan3865"
         x="45.900223"
         y="173.18634"
         style="font-size:12px;fill:#eeeeec">Ordonnanceur de tâches du système d'exploitation</tspan></text>
    <rect
       rx="2"
       ry="2.000006"
       y="190"
       x="159.63557"
       height="15.000006"
       width="80"
       id="rect3869"
       style="color:#000000;fill:url(#linearGradient3907);fill-opacity:1;fill-rule:nonzero;stroke:#73d216;stroke-width:1;stroke-linecap:round;stroke-linejoin:round;stroke-miterlimit:4;stroke-opacity:1;stroke-dasharray:none;stroke-dashoffset:0;marker:none;visibility:visible;display:inline;overflow:visible;enable-background:accumulate" />
    <text
       id="text4801"
       y="-9.4318113"
       x="201.44592"
       style="font-size:48.68031693px;font-style:normal;font-weight:normal;fill:#555753;fill-opacity:1;stroke:none;display:inline;font-family:Bitstream Vera Sans"
       xml:space="preserve"
       transform="matrix(0,0.94318116,-1.0602417,0,0,0)"><tspan
         style="font-size:9px;fill:#555753"
         y="-9.4318113"
         x="201.44592"
         id="tspan4803"
         sodipodi:role="line">Noyau du système d'exploitation</tspan></text>
    <rect
       rx="4.6355743"
       ry="4.9999919"
       y="355"
       x="104.63557"
       height="40"
       width="190"
       id="rect3889"
       style="color:#000000;fill:url(#linearGradient3904);fill-opacity:1;fill-rule:nonzero;stroke:#888a85;stroke-width:1;stroke-linecap:round;stroke-linejoin:round;stroke-miterlimit:4;stroke-opacity:1;stroke-dasharray:none;stroke-dashoffset:0;marker:none;visibility:visible;display:inline;overflow:visible;enable-background:accumulate" />
    <text
       xml:space="preserve"
       style="font-size:40px;font-style:normal;font-weight:normal;fill:#2e3436;fill-opacity:1;stroke:none;font-family:Bitstream Vera Sans"
       x="138.51788"
       y="382.86328"
       id="text3899"><tspan
         sodipodi:role="line"
         id="tspan3901"
         x="138.51788"
         y="382.86328"
         style="font-size:22px;fill:#2e3436;stroke:none">Processeur</tspan></text>
    <rect
       style="color:#000000;fill:url(#linearGradient3932);fill-opacity:1;fill-rule:nonzero;stroke:#a40000;stroke-width:1;stroke-linecap:round;stroke-linejoin:round;stroke-miterlimit:4;stroke-opacity:1;stroke-dasharray:none;stroke-dashoffset:0;marker:none;visibility:visible;display:inline;overflow:visible;enable-background:accumulate"
       id="rect3930"
       width="80"
       height="15.000006"
       x="159.63557"
       y="210"
       ry="2.000006"
       rx="2" />
    <rect
       rx="2"
       ry="2.000006"
       y="230"
       x="159.63557"
       height="15.000006"
       width="80"
       id="rect3934"
       style="color:#000000;fill:url(#linearGradient3936);fill-opacity:1;fill-rule:nonzero;stroke:#5c3566;stroke-width:1;stroke-linecap:round;stroke-linejoin:round;stroke-miterlimit:4;stroke-opacity:1;stroke-dasharray:none;stroke-dashoffset:0;marker:none;visibility:visible;display:inline;overflow:visible;enable-background:accumulate" />
    <rect
       style="color:#000000;fill:url(#linearGradient3940);fill-opacity:1;fill-rule:nonzero;stroke:#73d216;stroke-width:1;stroke-linecap:round;stroke-linejoin:round;stroke-miterlimit:4;stroke-opacity:1;stroke-dasharray:none;stroke-dashoffset:0;marker:none;visibility:visible;display:inline;overflow:visible;enable-background:accumulate"
       id="rect3938"
       width="80"
       height="15.000006"
       x="159.63557"
       y="250"
       ry="2.000006"
       rx="2" />
    <rect
       rx="2"
       ry="2.000006"
       y="270"
       x="159.63557"
       height="15.000006"
       width="80"
       id="rect3942"
       style="color:#000000;fill:url(#linearGradient3944);fill-opacity:1;fill-rule:nonzero;stroke:#a40000;stroke-width:1;stroke-linecap:round;stroke-linejoin:round;stroke-miterlimit:4;stroke-opacity:1;stroke-dasharray:none;stroke-dashoffset:0;marker:none;visibility:visible;display:inline;overflow:visible;enable-background:accumulate" />
    <rect
       style="color:#000000;fill:url(#linearGradient3948);fill-opacity:1;fill-rule:nonzero;stroke:#5c3566;stroke-width:1;stroke-linecap:round;stroke-linejoin:round;stroke-miterlimit:4;stroke-opacity:1;stroke-dasharray:none;stroke-dashoffset:0;marker:none;visibility:visible;display:inline;overflow:visible;enable-background:accumulate"
       id="rect3946"
       width="80"
       height="15.000006"
       x="159.63557"
       y="290"
       ry="2.000006"
       rx="2" />
    <rect
       rx="2"
       ry="2.000006"
       y="310"
       x="159.63557"
       height="15.000006"
       width="80"
       id="rect3950"
       style="color:#000000;fill:url(#linearGradient3952);fill-opacity:1;fill-rule:nonzero;stroke:#a40000;stroke-width:1;stroke-linecap:round;stroke-linejoin:round;stroke-miterlimit:4;stroke-opacity:1;stroke-dasharray:none;stroke-dashoffset:0;marker:none;visibility:visible;display:inline;overflow:visible;enable-background:accumulate" />
    <rect
       style="color:#000000;fill:url(#linearGradient3956);fill-opacity:1;fill-rule:nonzero;stroke:#204a87;stroke-width:1;stroke-linecap:round;stroke-linejoin:round;stroke-miterlimit:4;stroke-opacity:1;stroke-dasharray:none;stroke-dashoffset:0;marker:none;visibility:visible;display:inline;overflow:visible;enable-background:accumulate"
       id="rect3954"
       width="80"
       height="15.000006"
       x="159.63557"
       y="330"
       ry="2.000006"
       rx="2" />
    <text
       xml:space="preserve"
       style="font-size:40px;font-style:normal;font-weight:normal;fill:#2e3436;fill-opacity:1;stroke:none;font-family:Bitstream Vera Sans"
       x="202.21182"
       y="-252"
       id="text3994"
       transform="matrix(0,1,-1,0,0,0)"><tspan
         sodipodi:role="line"
         id="tspan3996"
         x="202.21182"
         y="-252"
         style="font-size:18px;fill:#2e3436">File d'exécution</tspan></text>
    <path
       style="fill:#555753;stroke-width:1px"
       d="m 272,202.31778 3,0 0,128 3,-3 -4.5,15 -4.5,-15 3,3 0,-128 z"
       id="path4000"
       sodipodi:nodetypes="cccccccc" />
    <text
       transform="matrix(0,0.94318116,-1.0602417,0,0,0)"
       xml:space="preserve"
       style="font-size:48.68031693px;font-style:normal;font-weight:normal;fill:#555753;fill-opacity:1;stroke:none;display:inline;font-family:Bitstream Vera Sans"
       x="10.602417"
       y="-9.4318113"
       id="text5112"><tspan
         sodipodi:role="line"
         id="tspan5114"
         x="10.602417"
         y="-9.4318113"
         style="font-size:9px;fill:#555753">Espace utilisateur</tspan></text>
  </g>
</svg>
